%YAML 1.1
%TAG !u! tag:unity3d.com,2011:
--- !u!74 &7400000
AnimationClip:
  m_ObjectHideFlags: 0
  m_CorrespondingSourceObject: {fileID: 0}
  m_PrefabInstance: {fileID: 0}
  m_PrefabAsset: {fileID: 0}
  m_Name: finalBossHead
  serializedVersion: 6
  m_Legacy: 0
  m_Compressed: 0
  m_UseHighQualityCurve: 1
  m_RotationCurves: []
  m_CompressedRotationCurves: []
  m_EulerCurves: []
  m_PositionCurves: []
  m_ScaleCurves: []
  m_FloatCurves: []
  m_PPtrCurves:
  - curve:
    - time: 0
      value: {fileID: -686496681, guid: 5f3f2f979325dea4286bbdbde5a230c0, type: 3}
    - time: 0.1
      value: {fileID: -657136047, guid: 5f3f2f979325dea4286bbdbde5a230c0, type: 3}
    - time: 0.2
      value: {fileID: 1964532290, guid: 5f3f2f979325dea4286bbdbde5a230c0, type: 3}
    - time: 0.3
      value: {fileID: -1265156863, guid: 5f3f2f979325dea4286bbdbde5a230c0, type: 3}
    - time: 0.4
      value: {fileID: -195605248, guid: 5f3f2f979325dea4286bbdbde5a230c0, type: 3}
    - time: 0.5
      value: {fileID: 1663940988, guid: 5f3f2f979325dea4286bbdbde5a230c0, type: 3}
    - time: 0.6
      value: {fileID: 148185324, guid: 5f3f2f979325dea4286bbdbde5a230c0, type: 3}
    - time: 0.7
      value: {fileID: 612550742, guid: 5f3f2f979325dea4286bbdbde5a230c0, type: 3}
    - time: 0.8
      value: {fileID: -526517571, guid: 5f3f2f979325dea4286bbdbde5a230c0, type: 3}
    - time: 0.9
      value: {fileID: -2033139742, guid: 5f3f2f979325dea4286bbdbde5a230c0, type: 3}
    - time: 1
      value: {fileID: -1669885128, guid: 5f3f2f979325dea4286bbdbde5a230c0, type: 3}
    - time: 1.1
      value: {fileID: -1962299067, guid: 5f3f2f979325dea4286bbdbde5a230c0, type: 3}
    - time: 1.2
      value: {fileID: 1914542832, guid: 5f3f2f979325dea4286bbdbde5a230c0, type: 3}
    - time: 1.3
      value: {fileID: 701246696, guid: 5f3f2f979325dea4286bbdbde5a230c0, type: 3}
    - time: 1.4
      value: {fileID: 322919007, guid: 5f3f2f979325dea4286bbdbde5a230c0, type: 3}
    - time: 1.5
      value: {fileID: 635213550, guid: 5f3f2f979325dea4286bbdbde5a230c0, type: 3}
    - time: 1.6
      value: {fileID: 1203771898, guid: 5f3f2f979325dea4286bbdbde5a230c0, type: 3}
    attribute: m_Sprite
    path: 
    classID: 212
    script: {fileID: 0}
  m_SampleRate: 10
  m_WrapMode: 0
  m_Bounds:
    m_Center: {x: 0, y: 0, z: 0}
    m_Extent: {x: 0, y: 0, z: 0}
  m_ClipBindingConstant:
    genericBindings:
    - serializedVersion: 2
      path: 0
      attribute: 0
      script: {fileID: 0}
      typeID: 212
      customType: 23
      isPPtrCurve: 1
    pptrCurveMapping:
    - {fileID: -686496681, guid: 5f3f2f979325dea4286bbdbde5a230c0, type: 3}
    - {fileID: -657136047, guid: 5f3f2f979325dea4286bbdbde5a230c0, type: 3}
    - {fileID: 1964532290, guid: 5f3f2f979325dea4286bbdbde5a230c0, type: 3}
    - {fileID: -1265156863, guid: 5f3f2f979325dea4286bbdbde5a230c0, type: 3}
    - {fileID: -195605248, guid: 5f3f2f979325dea4286bbdbde5a230c0, type: 3}
    - {fileID: 1663940988, guid: 5f3f2f979325dea4286bbdbde5a230c0, type: 3}
    - {fileID: 148185324, guid: 5f3f2f979325dea4286bbdbde5a230c0, type: 3}
    - {fileID: 612550742, guid: 5f3f2f979325dea4286bbdbde5a230c0, type: 3}
    - {fileID: -526517571, guid: 5f3f2f979325dea4286bbdbde5a230c0, type: 3}
    - {fileID: -2033139742, guid: 5f3f2f979325dea4286bbdbde5a230c0, type: 3}
    - {fileID: -1669885128, guid: 5f3f2f979325dea4286bbdbde5a230c0, type: 3}
    - {fileID: -1962299067, guid: 5f3f2f979325dea4286bbdbde5a230c0, type: 3}
    - {fileID: 1914542832, guid: 5f3f2f979325dea4286bbdbde5a230c0, type: 3}
    - {fileID: 701246696, guid: 5f3f2f979325dea4286bbdbde5a230c0, type: 3}
    - {fileID: 322919007, guid: 5f3f2f979325dea4286bbdbde5a230c0, type: 3}
    - {fileID: 635213550, guid: 5f3f2f979325dea4286bbdbde5a230c0, type: 3}
    - {fileID: 1203771898, guid: 5f3f2f979325dea4286bbdbde5a230c0, type: 3}
  m_AnimationClipSettings:
    serializedVersion: 2
    m_AdditiveReferencePoseClip: {fileID: 0}
    m_AdditiveReferencePoseTime: 0
    m_StartTime: 0
    m_StopTime: 1.7
    m_OrientationOffsetY: 0
    m_Level: 0
    m_CycleOffset: 0
    m_HasAdditiveReferencePose: 0
    m_LoopTime: 1
    m_LoopBlend: 0
    m_LoopBlendOrientation: 0
    m_LoopBlendPositionY: 0
    m_LoopBlendPositionXZ: 0
    m_KeepOriginalOrientation: 0
    m_KeepOriginalPositionY: 1
    m_KeepOriginalPositionXZ: 0
    m_HeightFromFeet: 0
    m_Mirror: 0
  m_EditorCurves: []
  m_EulerEditorCurves: []
  m_HasGenericRootTransform: 0
  m_HasMotionFloatCurves: 0
  m_Events: []
